Epoch,Training Loss,Training Accuracy,Val Accurracy,Val Precision,Val Recall,Val F1,Time
1,172.62989496301722,0,0.9758954857703631,0.7624507149337385,0.7140499347031165,0.7298152923764905,44.0185895
2,67.72601384846473,0,0.981185598626104,0.8418378304995742,0.7783922998368185,0.8063036704316646,43.081072099999986
3,44.89395408381044,0,0.9833323110893032,0.8429794064549627,0.8153463977391476,0.8281381860852958,42.72641540000001
4,31.763248102857137,0,0.9838229882237488,0.867340487916657,0.8168950888963973,0.8397034922600922,42.8024518
5,23.333361889542058,0,0.9840069921491659,0.8717001412136554,0.80609445919729,0.8353571939838608,42.81775120000003
6,17.19483281220746,0,0.9843443326790972,0.8579978366518599,0.8223920127709213,0.8379035827284742,45.000973399999964
7,12.57678627396461,0,0.9828416339548577,0.8852735597469631,0.784306906821888,0.8258999007879535,44.3260492
8,10.353930795374518,0,0.9841909960745829,0.883257995387569,0.8075247562733636,0.84074808537959,44.04079690000003
9,8.095994604438998,0,0.984375,0.8656085074992955,0.8199245435383652,0.841813760138878,43.75584789999999
10,6.662089811171322,0,0.9841449950932286,0.8381469937793232,0.8495285166833397,0.8425016157156427,43.45760289999998
11,5.491546115584363,0,0.9849270117762512,0.871044036007835,0.8260945802493491,0.8473944408235494,45.374239999999986
12,5.0594674860470175,0,0.9844516683022572,0.8834129301982715,0.7990228043775448,0.8353980968066502,43.09260699999993
13,4.6980552756448715,0,0.9839609911678115,0.8724934553856779,0.8197387427809527,0.8446448708109621,44.01652109999998
14,3.915967484445094,0,0.9843289990186457,0.8677196351379294,0.8148131927309554,0.8397202246424712,43.573083899999915
15,4.344657367610724,0,0.9853716879293425,0.871990673869466,0.8293914467303107,0.8495441821237505,42.835792800000036
16,3.111419272189047,0,0.9853103532875368,0.892973290208847,0.8152003797199111,0.8499680882839354,44.94085910000001
17,2.674204524436028,0,0.9850956820412169,0.8775743188266169,0.8229157069247952,0.8479969822152894,43.33863469999994
18,3.7172344198413922,0,0.985065014720314,0.8702240078035973,0.8326543888650951,0.8494173671459071,43.69933290000006
19,2.899348259881171,0,0.9854790235525025,0.8788839676434311,0.8301503704498673,0.8527527967588725,43.493339499999934
20,2.4406467689148483,0,0.9851263493621197,0.8696432673193412,0.8286651951997431,0.8476036615763525,43.28686019999998
